Report
…
The data is taken from a study of patients undergoing elective
thoracic surgery requiring a double-lumen endotracheal tube. 236 adult
patients were enrolled. Data on Gender, physical status, BMI, age,
Mallampati score, smoking status, preoperative pain, surgery size,
intervention and the outcomes (cough, sore throat and pain swallowing at
various time points) are provided in the original data. For more
information on the data see codebook.

Reading data

data

## # A tibble: 265 × 20
##    patient_id month  year preOp_gender `BMI kg/m2` preOp_age preOp_smoking
##         <dbl> <dbl> <dbl>        <dbl>       <dbl>     <dbl>         <dbl>
##  1          1    10  2009            0        33.0        67             1
##  2          2     3  2008            0        23.7        76             2
##  3          3     3  2009            0        26.8        58             1
##  4          4     3  2008            0        28.4        59             1
##  5          5     4  2010            0        30.4        73             2
##  6          6    12  2008            0        35.5        61             1
##  7          7    10  2008            0        25.5        66             1
##  8          8     3  2008            0        31.1        61             1
##  9          9     8  2010            0        21.2        83             1
## 10         10    11  2008            0        27.2        69             3
## # ℹ 255 more rows
## # ℹ 13 more variables: preOp_pain <dbl>, treat <dbl>, pacu30min_cough <dbl>,
## #   pacu30min_throatPain <dbl>, pacu30min_swallowPain <dbl>,
## #   pacu90min_cough <dbl>, pacu90min_throatPain <dbl>, postOp4hour_cough <dbl>,
## #   postOp4hour_throatPain <dbl>, pod1am_cough <dbl>, pod1am_throatPain <dbl>,
## #   `1gender` <dbl>, preOp_ASA_Mallampati <chr>

joindata

## # A tibble: 245 × 3
##    patient_id intraOp_surgerySize extubation_cough
##         <dbl>               <dbl>            <dbl>
##  1          1                   2                0
##  2          2                   1                0
##  3          3                   2                0
##  4          4                   3                0
##  5          5                   2                0
##  6          6                   3                0
##  7          7                   3                0
##  8          8                   1                0
##  9          9                   1                0
## 10         10                   2                0
## # ℹ 235 more rows

Joining datasets

combined_data <- data %>%
  full_join(joindata, join_by("patient_id"), relationship = "many-to-many")

combined_data

## # A tibble: 277 × 22
##    patient_id month  year preOp_gender `BMI kg/m2` preOp_age preOp_smoking
##         <dbl> <dbl> <dbl>        <dbl>       <dbl>     <dbl>         <dbl>
##  1          1    10  2009            0        33.0        67             1
##  2          2     3  2008            0        23.7        76             2
##  3          3     3  2009            0        26.8        58             1
##  4          4     3  2008            0        28.4        59             1
##  5          5     4  2010            0        30.4        73             2
##  6          6    12  2008            0        35.5        61             1
##  7          7    10  2008            0        25.5        66             1
##  8          8     3  2008            0        31.1        61             1
##  9          9     8  2010            0        21.2        83             1
## 10         10    11  2008            0        27.2        69             3
## # ℹ 267 more rows
## # ℹ 15 more variables: preOp_pain <dbl>, treat <dbl>, pacu30min_cough <dbl>,
## #   pacu30min_throatPain <dbl>, pacu30min_swallowPain <dbl>,
## #   pacu90min_cough <dbl>, pacu90min_throatPain <dbl>, postOp4hour_cough <dbl>,
## #   postOp4hour_throatPain <dbl>, pod1am_cough <dbl>, pod1am_throatPain <dbl>,
## #   `1gender` <dbl>, preOp_ASA_Mallampati <chr>, intraOp_surgerySize <dbl>,
## #   extubation_cough <dbl>
…
